Making A Movie Popular
…
Part 1: Data

The original data were gathered from 651 randomly sampled movies produced and released before 2016. 32 different variables were contained in the dataset,including numerical and categorical ones, as well as information from Rotten Tomatoes and IMDB for reference.

The data can be generalized to all US movies because of the randomly selection of the data. And no causality can be inferred.

Not all variables will be used in the project, since some of them are only for informational purposes and do not make any sense to reach a statistical result.

Therefore, we create a new dataset (movies_new) based on the original one, through selecting and combining some variables.

movies_new <- movies[c(1:3,6,18,4,13,16,5,15,17,19:26)]

movies_new

## # A tibble: 651 x 19
##    title title_type genre studio audience_score runtime imdb_rating
##    <chr> <fct>      <fct> <fct>           <dbl>   <dbl>       <dbl>
##  1 Fill Feature F Drama Indom             73      80         5.5
##  2 The  Feature F Drama Warne             81     101         7.3
##  3 Wait Feature F Come Sony              91      84         7.6
##  4 The  Feature F Drama Colum             76     139         7.2
##  5 Male Feature F Horr Ancho             27      90         5.1
##  6 Old  Documenta Docu Shcal             86      78         7.8
##  7 Lady Feature F Drama Param             76     142         7.2
##  8 Mad  Feature F Drama MGM/U             47      93         5.5
##  9 Beau Documenta Docu Indep             89      88         7.5
## 10 The  Feature F Drama IFC F             66     119         6.6
## # ... with 641 more rows, and 12 more variables: critics_score <dbl>,
## #   mpaa_rating <fct>, critics_rating <fct>, audience_rating <fct>,
## #   best_pic_nom <fct>, best_pic_win <fct>, best_actor_win <fct>,
## #   best_actress_win <fct>, best_dir_win <fct>, top200_box <fct>,
## #   director <chr>, actor1 <chr>
…
